…
FINDINGS 
 The Republican Parties mean and median contributions were higher than the Democratic Parties. You can also see from the boxplot above that the other parties mean and median was higher than both Republicans and Democrats.

2. Contribution Amount and Canidate (Bivariate)

## # A tibble: 25 x 5
## # Groups:   party [3]
##    party      cand_nm                  sum_can mean_can     n
##    <chr>      <fct>                      <dbl>    <dbl> <int>
##  1 Republican Pataki, George E.          6000      667.     9
##  2 Republican Gilmore, James S III      11800     2360      5
##  3 Democrat   Lessig, Lawrence          20028.     646.    31
##  4 Democrat   Webb, James Henry Jr.     31090.     545.    57
##  5 Other      McMullin, Evan            37237      195.   191
##  6 Republican Jindal, Bobby             42460      772     55
##  7 Other      Stein, Jill               86921.     259.   336
##  8 Democrat   O'Malley, Martin Joseph  139187      669.   208
##  9 Republican Graham, Lindsey O.       146487      997.   147
## 10 Republican Christie, Christopher J. 269355     1433.   188
## # ... with 15 more rows
…
